…
One-mode subset of Coleman's adolescent society network (Coleman 1961),
as used in Feld's (1991) "Why your friends have more friends than you do".
Coleman collected data on friendships among students in 12 U.S. high schools.
Feld explored a subset of 8 girls from one of these schools, "Marketville",
and gave them fictitious names, which are retained here.

Usage

data(ison_adolescents)

Format

#> # The Adolescent Society
#> # A labelled, undirected network of 8 adolescents and 10 friendships ties
#> # A tibble: 8 x 1
#>   name 
#>   <chr>
#> 1 Betty
#> 2 Sue  
#> 3 Alice
#> 4 Jane 
#> 5 Dale 
#> 6 Pam  
#> # i 2 more rows
#> # A tibble: 10 x 2
#>    from    to
#>   <int> <int>
#> 1     1     2
#> 2     2     3
#> 3     3     4
#> 4     2     5
#> 5     3     5
#> 6     4     5
#> # i 4 more rows
…
