…
 'season': season that the character joined the show

 'sign': character's astrological starsign, if known

The data is current up to (I think?) season 10?

Usage

data(ison_greys)

Format

#> # A labelled, undirected network of 53 nodes and 56 ties
#> # A tibble: 53 x 7
#>   name               sex   race  birthyear position  season sign  
#>   <chr>              <chr> <chr>     <dbl> <chr>      <dbl> <chr> 
#> 1 Addison Montgomery F     White      1967 Attending      1 Libra 
#> 2 Adele Webber       F     Black      1949 Non-Staff      2 Leo   
#> 3 Teddy Altman       F     White      1969 Attending      6 Pisces
#> 4 Amelia Shepherd    F     White      1981 Attending      7 Libra 
#> 5 Arizona Robbins    F     White      1976 Attending      5 Leo   
#> 6 Rebecca Pope       F     White      1975 Non-Staff      3 Gemini
#> # i 47 more rows
#> # A tibble: 56 x 2
#>    from    to
#>   <int> <int>
#> 1     5    47
#> 2    21    47
#> 3     5    46
#> 4     5    41
#> 5    18    41
#> 6    21    41
#> # i 50 more rows
…
