…
Shirin Glander extended a data set on character deaths in the TV series Game of Thrones
with the kinship relationships between the characters, by scraping "A Wiki of Ice and Fire"
and adding missing information by hand.

Usage

data(ison_thrones)

Format

#> # Game of Thrones Kinship
#> # A labelled, multiplex, directed network of 208 characters and 404 kinship
#> arcs
#> # A tibble: 208 x 8
#>   name           male culture house          popularity house2      color  shape
#>   <chr>         <dbl> <fct>   <chr>               <dbl> <chr>       <I<ch> <chr>
#> 1 Alys Arryn        0 <NA>    House Arryn        0.0803 <NA>        <NA>   circ~
#> 2 Elys Waynwood     0 <NA>    House Waynwood     0.0702 <NA>        <NA>   circ~
#> 3 Jasper Arryn      1 <NA>    House Arryn        0.0435 <NA>        <NA>   squa~
#> 4 Jeyne Royce       0 <NA>    House Royce        0      <NA>        <NA>   circ~
#> 5 Jon Arryn         1 Valemen House Arryn        0.836  <NA>        <NA>   squa~
#> 6 Lysa Arryn        0 <NA>    House Tully        0      House Tully #F781~ circ~
#> # i 202 more rows
#> # A tibble: 404 x 5
#>    from    to type   color    lty  
#>   <int> <int> <chr>  <I<chr>> <chr>
#> 1     6     7 mother #7570B3  solid
#> 2     3     1 father #1B9E77  solid
#> 3     3     5 father #1B9E77  solid
#> 4     5     7 father #1B9E77  solid
#> 5    10    23 mother #7570B3  solid
#> 6    10    12 mother #7570B3  solid
#> # i 398 more rows
…
