…
Usage

data(ison_koenigsberg)

Format

#> # A labelled, undirected network of 4 nodes and 7 ties
#> # A tibble: 4 x 3
#>   name       lat   lon
#>   <chr>    <dbl> <dbl>
#> 1 Altstadt  54.7  20.5
#> 2 Kneiphof  54.7  20.5
#> 3 Lomse     54.7  20.5
#> 4 Vorstadt  54.7  20.5
#> # A tibble: 7 x 3
#>    from    to name           
#>   <int> <int> <chr>          
#> 1     1     2 Kraemer Bruecke
#> 2     1     2 Schmiedebruecke
#> 3     1     3 Holzbruecke    
#> 4     2     3 Honigbruecke   
#> 5     2     4 Gruene Bruecke 
#> 6     2     4 Koettelbruecke 
#> # i 1 more row
…
