…
Usage

data(ison_algebra)

Format

#> # A multiplex, weighted, directed network of 16 nodes and 279 social, tasks,
#> and friends arcs
#> # A tibble: 279 x 4
#>    from    to type   weight
#>   <int> <int> <chr>   <dbl>
#> 1     1     5 social   1.2 
#> 2     1     5 tasks    0.3 
#> 3     1     8 social   0.15
#> 4     1     9 social   2.85
#> 5     1     9 tasks    0.3 
#> 6     1    10 social   6.45
#> # i 273 more rows
…
