…
Usage

data(ison_friends)

Format

#> # A longitudinal, labelled, weighted, directed network of 650 nodes and 3959
#> arcs
#> # A tibble: 650 x 1
#>   name        
#>   <chr>       
#> 1 Actor       
#> 2 Alan        
#> 3 Andrea      
#> 4 Angela      
#> 5 Aunt Iris   
#> 6 Aunt Lillian
#> # i 644 more rows
#> # A tibble: 3,959 x 4
#>    from    to  wave weight
#>   <int> <int> <int>  <int>
#> 1     1    44     1      1
#> 2     2    14     1      1
#> 3     2    44     1      1
#> 4     2    58     1      2
#> 5     2    72     1      1
#> 6     2    75     1      1
#> # i 3,953 more rows
…
