…
Description

These data contain the frequent associations between the 62 dolphins of a
pod of dolphins living off Doubtful Sound, New Zealand.
Additional information can be found in the literature cited below.

Usage

data(ison_dolphins)

Format

#> # A labelled, undirected network of 62 nodes and 159 ties
#> # A tibble: 62 x 1
#>   name      
#>   <chr>     
#> 1 Beak      
#> 2 Beescratch
#> 3 Bumper    
#> 4 CCL       
#> 5 Cross     
#> 6 DN16      
#> # i 56 more rows
#> # A tibble: 159 x 2
#>    from    to
#>   <int> <int>
#> 1     4     9
#> 2     6    10
#> 3     7    10
#> 4     1    11
#> 5     3    11
#> 6     6    14
#> # i 153 more rows
…
