…
A directed, simple, named, weighted graph with 32 nodes and 440
edges. Nodes are academics and edges illustrate the communication patterns
on an Electronic Information Exchange System among them. Node attributes
include the number of citations (Citations) and the discipline of the
researchers (Discipline). Edge weights illustrate the number of emails
sent from one academic to another over the studied time period.

Usage

data(ison_networkers)

Format

#> # A labelled, weighted, directed network of 32 nodes and 440 arcs
#> # A tibble: 32 x 3
#>   name               Discipline   Citations
#>   <chr>              <chr>            <dbl>
#> 1 Lin Freeman        Sociology           19
#> 2 Doug White         Anthropology         3
#> 3 Ev Rogers          Other              170
#> 4 Richard Alba       Sociology           23
#> 5 Phipps Arabie      Other               16
#> 6 Carol Barner-Barry Other                6
#> # i 26 more rows
#> # A tibble: 440 x 3
#>    from    to weight
#>   <int> <int>  <dbl>
#> 1     1     2    488
#> 2     1     3     28
#> 3     1     4     65
#> 4     1     5     20
#> 5     1     6     65
#> 6     1     7     45
#> # i 434 more rows
…
