…
Usage

data(ison_southern_women)

Format

#> # Southern Women Data
#> # A labelled, two-mode network of 18 women and 14 social events and 89
#> participation ties
#> # A tibble: 32 x 4
#>   type  name      Surname    Title
#>   <lgl> <chr>     <chr>      <chr>
#> 1 FALSE Evelyn    Jefferson  Mrs  
#> 2 FALSE Laura     Mandeville Miss 
#> 3 FALSE Theresa   Anderson   Miss 
#> 4 FALSE Brenda    Rogers     Miss 
#> 5 FALSE Charlotte McDowd     Miss 
#> 6 FALSE Frances   Anderson   Miss 
#> # i 26 more rows
#> # A tibble: 89 x 3
#>    from    to date      
#>   <int> <int> <date>    
#> 1    14    29 1936-02-23
#> 2    15    29 1936-02-23
#> 3    17    29 1936-02-23
#> 4    18    29 1936-02-23
#> 5     1    23 1936-02-25
#> 6     2    23 1936-02-25
#> # i 83 more rows
…
