…
Description

This network should solely be used
for demonstration purposes as it does not describe a real network.
To convert into the two-mode version,
assign ison_brandes %>% rename(type = twomode_type).

Usage

data(ison_brandes)

Format

#> # A undirected network of 11 nodes and 12 ties
#> # A tibble: 11 x 1
#>   twomode_type
#>   <lgl>       
#> 1 FALSE       
#> 2 FALSE       
#> 3 TRUE        
#> 4 FALSE       
#> 5 TRUE        
#> 6 TRUE        
#> # i 5 more rows
#> # A tibble: 12 x 2
#>    from    to
#>   <int> <int>
#> 1     1     3
#> 2     2     3
#> 3     3     4
#> 4     4     5
#> 5     4     6
#> 6     5     7
#> # i 6 more rows
