…
Usage

data(ison_karateka)

Format

#> # A labelled, weighted, undirected network of 34 nodes and 78 ties
#> # A tibble: 34 x 2
#>   name  allegiance
#>   <chr>      <dbl>
#> 1 Mr Hi          1
#> 2 2              1
#> 3 3              1
#> 4 4              1
#> 5 5              1
#> 6 6              1
#> # i 28 more rows
#> # A tibble: 78 x 3
#>    from    to weight
#>   <int> <int>  <dbl>
#> 1     1     2      4
#> 2     1     3      5
#> 3     2     3      6
#> 4     1     4      3
#> 5     2     4      3
#> 6     3     4      3
#> # i 72 more rows
…
