…
A multimodal network with three levels representing ties between individuals,
civic organisations in Bristol, and major protest and civic events that occurred
between 1990 and 2000. The data contains individuals' affiliations to civic organizations
in Bristol, the participation of these individuals in major protest and civic events between 1990-2002,
and the involvement of the civic organizations in these events.

Usage

data(mpn_bristol)

Format

#> # A labelled, two-mode network with 264 nodes and 1496 ties
#> # A tibble: 264 x 3
#>   name  type    lvl
#>   <chr> <lgl> <dbl>
#> 1 101   FALSE     1
#> 2 102   FALSE     1
#> 3 103   FALSE     1
#> 4 104   FALSE     1
#> 5 105   FALSE     1
#> 6 106   FALSE     1
#> # i 258 more rows
#> # A tibble: 1,496 x 2
#>    from    to
#>   <int> <int>
#> 1    36   151
#> 2    40   151
#> 3    73   151
#> 4    94   151
#> 5   138   151
#> 6   145   151
#> # i 1,490 more rows
…
