…
Usage

data(mpn_elite_usa_advice)

data(mpn_elite_usa_money)

Format

#> # A labelled, two-mode network with 34 nodes and 46 ties
#> # A tibble: 34 x 2
#>   type  name    
#>   <lgl> <chr>   
#> 1 FALSE Albright
#> 2 FALSE Argyros 
#> 3 FALSE Armitage
#> 4 FALSE Curry   
#> 5 FALSE Fukuyama
#> 6 FALSE Gray    
#> # i 28 more rows
#> # A tibble: 46 x 2
#>    from    to
#>   <int> <int>
#> 1     1    17
#> 2     1    19
#> 3     1    21
#> 4     2    22
#> 5     2    23
#> 6     2    27
#> # i 40 more rows

#> # A labelled, two-mode network with 38 nodes and 103 ties
#> # A tibble: 38 x 2
#>   type  name    
#>   <lgl> <chr>   
#> 1 FALSE Adkerson
#> 2 FALSE Akins   
#> 3 FALSE Banga   
#> 4 FALSE Boyce   
#> 5 FALSE Britt   
#> 6 FALSE Cannon  
#> # i 32 more rows
#> # A tibble: 103 x 2
#>    from    to
#>   <int> <int>
#> 1     1    27
#> 2     1    28
#> 3     1    34
#> 4     1    36
#> 5     2    28
#> 6     2    32
#> # i 97 more rows
…
