…
Description

One-mode interstate trade relations and two-mode state membership in IGOs (COW)

Usage

data(mpn_cow_trade)

data(mpn_cow_igo)

Format

#> # A labelled, weighted, directed network with 116 nodes and 11489 arcs
#> # A tibble: 116 x 1
#>   name                    
#>   <chr>                   
#> 1 United States of America
#> 2 Canada                  
#> 3 Cuba                    
#> 4 Dominican Republic      
#> 5 Jamaica                 
#> 6 Trinidad and Tobago     
#> # i 110 more rows
#> # A tibble: 11,489 x 3
#>    from    to  weight
#>   <int> <int>   <dbl>
#> 1     1     2 180387 
#> 2     1     3    587.
#> 3     1     4   5511.
#> 4     1     5   1896.
#> 5     1     6   2188.
#> 6     1     7 123677 
#> # i 11,483 more rows

#> # A labelled, weighted, two-mode network with 152 nodes and 839 ties
#> # A tibble: 152 x 3
#>   name        type  polity2
#>   <chr>       <lgl>   <dbl>
#> 1 Afghanistan FALSE      -7
#> 2 Albania     FALSE       5
#> 3 Algeria     FALSE      -3
#> 4 Angola      FALSE      -6
#> 5 Argentina   FALSE       8
#> 6 Australia   FALSE      10
#> # i 146 more rows
#> # A tibble: 839 x 3
#>    from    to weight
#>   <int> <int>  <dbl>
#> 1     1   113      1
#> 2     1   114      1
#> 3     1   115      0
#> 4     1   116      0
#> 5     1   117      1
#> 6     1   118      0
#> # i 833 more rows
…
